%YAML 1.1
%TAG !u! tag:unity3d.com,2011:
--- !u!114 &11400000
MonoBehaviour:
  m_ObjectHideFlags: 0
  m_CorrespondingSourceObject: {fileID: 0}
  m_PrefabInstance: {fileID: 0}
  m_PrefabAsset: {fileID: 0}
  m_GameObject: {fileID: 0}
  m_Enabled: 1
  m_EditorHideFlags: 0
  m_Script: {fileID: 11500000, guid: fcccf953513567a48bb916a48566c729, type: 3}
  m_Name: Gloves
  m_EditorClassIdentifier: 
  name: Gloves
  icon: {fileID: 21300000, guid: d0e5a4463b9b5044fa1ba6163c695ad6, type: 3}
  isDefaultItem: 0
  attack: 0
  armor: 2
  manaRegen: 3
  manaIncrease: 1
  healthRegen: 0
  healthIncrease: 0
